{
 "actions": [],
 "allow_import": 1,
 "allow_rename": 1,
 "autoname": "field:mode_of_payment",
 "creation": "2012-12-04 17:49:20",
 "doctype": "DocType",
 "document_type": "Setup",
 "engine": "InnoDB",
 "field_order": [
  "mode_of_payment",
  "enabled",
  "type",
  "accounts",
  "portal_tab",
  "icon",
  "portal_title",
  "section_break_rpgt",
  "portal_description"
 ],
 "fields": [
  {
   "fieldname": "mode_of_payment",
   "fieldtype": "Data",
   "in_list_view": 1,
   "label": "Mode of Payment",
   "oldfieldname": "mode_of_payment",
   "oldfieldtype": "Data",
   "reqd": 1,
   "unique": 1
  },
  {
   "fieldname": "type",
   "fieldtype": "Select",
   "in_standard_filter": 1,
   "label": "Type",
   "options": "Cash\nBank\nPhone"
  },
  {
   "fieldname": "accounts",
   "fieldtype": "Table",
   "label": "Accounts",
   "options": "Mode of Payment Account"
  },
  {
   "default": "1",
   "fieldname": "enabled",
   "fieldtype": "Check",
   "label": "Enabled"
  },
  {
   "fieldname": "portal_tab",
   "fieldtype": "Tab Break",
   "label": "Portal"
  },
  {
   "default": "Credit Card",
   "fieldname": "icon",
   "fieldtype": "Select",
   "label": "Portal Icon",
   "options": "Credit Card\nWire Transfer\nBank Draft\nCash\nCheque\nPhone\nOther"
  },
  {
   "fieldname": "section_break_rpgt",
   "fieldtype": "Section Break"
  },
  {
   "depends_on": "eval:!doc.payment_gateway",
   "description": "This description will be displayed if this mode of payment is not linked with a payment gateway",
   "fieldname": "portal_description",
   "fieldtype": "Markdown Editor",
   "label": "Portal Description"
  },
  {
   "fieldname": "portal_title",
   "fieldtype": "Data",
   "label": "Portal Title"
  }
 ],
 "icon": "fa fa-credit-card",
 "idx": 1,
 "links": [],
 "modified": "2025-01-03 10:05:50.686802",
 "modified_by": "Administrator",
 "module": "Accounts",
 "name": "Mode of Payment",
 "naming_rule": "By fieldname",
 "owner": "Administrator",
 "permissions": [
  {
   "create": 1,
   "delete": 1,
   "email": 1,
   "export": 1,
   "print": 1,
   "read": 1,
   "report": 1,
   "role": "System Manager",
   "select": 1,
   "share": 1,
   "write": 1
  },
  {
   "create": 1,
   "delete": 1,
   "email": 1,
   "export": 1,
   "print": 1,
   "read": 1,
   "report": 1,
   "role": "Sales Master Manager",
   "select": 1,
   "share": 1,
   "write": 1
  },
  {
   "create": 1,
   "delete": 1,
   "email": 1,
   "export": 1,
   "print": 1,
   "read": 1,
   "report": 1,
   "role": "Accounts Manager",
   "select": 1,
   "share": 1,
   "write": 1
  },
  {
   "create": 1,
   "email": 1,
   "export": 1,
   "print": 1,
   "read": 1,
   "report": 1,
   "role": "Accounts User",
   "select": 1,
   "share": 1,
   "write": 1
  }
 ],
 "quick_entry": 1,
 "show_name_in_global_search": 1,
 "show_preview_popup": 1,
 "sort_field": "creation",
 "sort_order": "ASC",
 "states": [],
 "translated_doctype": 1
}
