{
 "actions": [],
 "allow_rename": 1,
 "autoname": "naming_series:",
 "creation": "2024-12-07 14:07:01.356963",
 "default_view": "List",
 "doctype": "DocType",
 "editable_grid": 1,
 "engine": "InnoDB",
 "field_order": [
  "naming_series",
  "company",
  "status",
  "column_break_p0s0",
  "from_date",
  "to_date",
  "amended_from"
 ],
 "fields": [
  {
   "fieldname": "naming_series",
   "fieldtype": "Select",
   "label": "Naming Series",
   "options": "CBAL-.#####"
  },
  {
   "fieldname": "company",
   "fieldtype": "Link",
   "label": "Company",
   "options": "Company",
   "search_index": 1
  },
  {
   "default": "Draft",
   "fieldname": "status",
   "fieldtype": "Select",
   "in_list_view": 1,
   "in_preview": 1,
   "label": "Status",
   "options": "Draft\nQueued\nIn Progress\nCompleted\nFailed\nCanceled",
   "read_only": 1
  },
  {
   "fieldname": "column_break_p0s0",
   "fieldtype": "Column Break"
  },
  {
   "fieldname": "from_date",
   "fieldtype": "Date",
   "label": "From Date"
  },
  {
   "fieldname": "to_date",
   "fieldtype": "Date",
   "label": "To Date"
  },
  {
   "fieldname": "amended_from",
   "fieldtype": "Link",
   "label": "Amended From",
   "no_copy": 1,
   "options": "Stock Closing Entry",
   "print_hide": 1,
   "read_only": 1,
   "search_index": 1
  }
 ],
 "index_web_pages_for_search": 1,
 "is_submittable": 1,
 "links": [],
 "modified": "2024-12-20 13:48:46.618066",
 "modified_by": "Administrator",
 "module": "Stock",
 "name": "Stock Closing Entry",
 "naming_rule": "By \"Naming Series\" field",
 "owner": "Administrator",
 "permissions": [
  {
   "amend": 1,
   "cancel": 1,
   "create": 1,
   "delete": 1,
   "email": 1,
   "export": 1,
   "print": 1,
   "read": 1,
   "report": 1,
   "role": "System Manager",
   "share": 1,
   "submit": 1,
   "write": 1
  },
  {
   "amend": 1,
   "cancel": 1,
   "create": 1,
   "delete": 1,
   "email": 1,
   "export": 1,
   "print": 1,
   "read": 1,
   "report": 1,
   "role": "Stock User",
   "share": 1,
   "submit": 1,
   "write": 1
  },
  {
   "amend": 1,
   "cancel": 1,
   "create": 1,
   "delete": 1,
   "email": 1,
   "export": 1,
   "print": 1,
   "read": 1,
   "report": 1,
   "role": "Stock Manager",
   "share": 1,
   "submit": 1,
   "write": 1
  }
 ],
 "sort_field": "creation",
 "sort_order": "DESC",
 "states": []
}
