{
 "creation": "2023-08-30 12:54:15.637841",
 "dashboard_name": "",
 "docstatus": 0,
 "doctype": "Form Tour",
 "first_document": 0,
 "idx": 2,
 "include_name_field": 0,
 "is_standard": 1,
 "language": "fr",
 "list_name": "",
 "modified": "2023-08-31 12:34:01.571821",
 "modified_by": "Administrator",
 "module": "Projects",
 "name": "Task",
 "new_document_form": 1,
 "owner": "Administrator",
 "page_name": "",
 "page_route": "[\"Form\",\"Task\",\"new-task\"]",
 "reference_doctype": "Task",
 "report_name": "",
 "save_on_complete": 1,
 "steps": [
  {
   "description": "Donnez un nom \u00e0 votre t\u00e2che",
   "fieldname": "subject",
   "fieldtype": "Data",
   "has_next_condition": 0,
   "hide_buttons": 0,
   "is_table_field": 0,
   "label": "Subject",
   "modal_trigger": 0,
   "next_on_click": 0,
   "offset_x": 0,
   "offset_y": 0,
   "popover_element": 0,
   "position": "Bottom",
   "title": "Sujet",
   "ui_tour": 0
  },
  {
   "description": "Pour suivre l'avancement de votre t\u00e2che.",
   "fieldname": "status",
   "fieldtype": "Select",
   "has_next_condition": 0,
   "hide_buttons": 0,
   "is_table_field": 0,
   "label": "Status",
   "modal_trigger": 0,
   "next_on_click": 0,
   "offset_x": 0,
   "offset_y": 0,
   "popover_element": 0,
   "position": "Bottom",
   "title": "Statut",
   "ui_tour": 0
  },
  {
   "description": "A quelle projet cette t\u00e2che est-elle associ\u00e9e ?\n<br>\n<i>Remarque : vous devez avoir cr\u00e9\u00e9 un projet auparavant</i>",
   "fieldname": "project",
   "fieldtype": "Link",
   "has_next_condition": 0,
   "hide_buttons": 0,
   "is_table_field": 0,
   "label": "Project",
   "modal_trigger": 0,
   "next_on_click": 0,
   "offset_x": 0,
   "offset_y": 0,
   "popover_element": 0,
   "position": "Top",
   "title": "Projet",
   "ui_tour": 0
  },
  {
   "description": "D\u00e9finissez un niveau de priorit\u00e9. ",
   "fieldname": "priority",
   "fieldtype": "Select",
   "has_next_condition": 0,
   "hide_buttons": 0,
   "is_table_field": 0,
   "label": "Priority",
   "modal_trigger": 0,
   "next_on_click": 0,
   "offset_x": 0,
   "offset_y": 0,
   "popover_element": 0,
   "position": "Bottom",
   "title": "Priorit\u00e9",
   "ui_tour": 0
  },
  {
   "description": "Si vous utilisez le module support de dokos, vous pouvez associer une t\u00e2che \u00e0 un ticket ouvert au pr\u00e9alable par un utilisateur.<br>\nPar exemple si quelqu'un ouvre un ticket pour reporter un bug, vous pouvez ouvrir une t\u00e2che pour traquer la r\u00e9solution de ce bug.",
   "fieldname": "issue",
   "fieldtype": "Link",
   "has_next_condition": 0,
   "hide_buttons": 0,
   "is_table_field": 0,
   "label": "Issue",
   "modal_trigger": 0,
   "next_on_click": 0,
   "offset_x": 0,
   "offset_y": 0,
   "popover_element": 0,
   "position": "Bottom",
   "title": "Ticket",
   "ui_tour": 0
  },
  {
   "description": "Vos t\u00e2ches peuvent \u00eatre regroup\u00e9es par type d'activit\u00e9. Le type d'activit\u00e9 permet de sp\u00e9cifier un taux horaire de facturation et de revient par d\u00e9faut. <br>\n<br>\nVous pourrez retrouver une synth\u00e8se du temps pass\u00e9 par type d'activit\u00e9 dans le projet.",
   "fieldname": "type",
   "fieldtype": "Link",
   "has_next_condition": 0,
   "hide_buttons": 0,
   "is_table_field": 0,
   "label": "Type",
   "modal_trigger": 0,
   "next_on_click": 0,
   "offset_x": 0,
   "offset_y": 0,
   "popover_element": 0,
   "position": "Bottom",
   "title": "Type d'activit\u00e9",
   "ui_tour": 0
  },
  {
   "description": "Le \"Poids\" est une valeur arbitraire qui permet de diff\u00e9rencier des t\u00e2ches demandant plus de temps que d'autres. Attribuer un poids \u00e0 vos t\u00e2ches vous permet de calculer l'avancement de votre projet avec une pond\u00e9ration.<br>\n<br>\nPar exemple si vous avez une t\u00e2che compl\u00e9t\u00e9e \u00e0 50% de pond\u00e9ration 1 et une t\u00e2che compl\u00e9t\u00e9e \u00e0 100% de pond\u00e9ration 10, l'avancement pond\u00e9r\u00e9 de votre projet est 95.5%.",
   "fieldname": "task_weight",
   "fieldtype": "Float",
   "has_next_condition": 0,
   "hide_buttons": 0,
   "is_table_field": 0,
   "label": "Weight",
   "modal_trigger": 0,
   "next_on_click": 0,
   "offset_x": 0,
   "offset_y": 0,
   "popover_element": 0,
   "position": "Bottom",
   "title": "Poids",
   "ui_tour": 0
  },
  {
   "description": "Cochez cette case afin que cette t\u00e2che puisse avoir des t\u00e1ches d\u00e9pendantes",
   "fieldname": "is_group",
   "fieldtype": "Check",
   "has_next_condition": 0,
   "hide_buttons": 0,
   "is_table_field": 0,
   "label": "Is Group",
   "modal_trigger": 0,
   "next_on_click": 0,
   "offset_x": 0,
   "offset_y": 0,
   "popover_element": 0,
   "position": "Bottom",
   "title": "Est un groupe",
   "ui_tour": 0
  },
  {
   "description": "Vous pouvez d\u00e9finir votre t\u00e2che comme mod\u00e8le afin de l'utiliser comme base pour en cr\u00e9er d'autres ult\u00e9rieurement",
   "fieldname": "is_template",
   "fieldtype": "Check",
   "has_next_condition": 0,
   "hide_buttons": 0,
   "is_table_field": 0,
   "label": "Is Template",
   "modal_trigger": 0,
   "next_on_click": 0,
   "offset_x": 0,
   "offset_y": 0,
   "popover_element": 0,
   "position": "Bottom",
   "title": "Est un mod\u00e8le",
   "ui_tour": 0
  },
  {
   "description": "Toute t\u00e2che \u00e0 un d\u00e9but...",
   "fieldname": "exp_start_date",
   "fieldtype": "Date",
   "has_next_condition": 0,
   "hide_buttons": 0,
   "is_table_field": 0,
   "label": "Expected Start Date",
   "modal_trigger": 0,
   "next_on_click": 0,
   "offset_x": 0,
   "offset_y": 0,
   "popover_element": 0,
   "position": "Bottom",
   "title": "Date d\u00e9but pr\u00e9vue",
   "ui_tour": 0
  },
  {
   "description": "...et une fin (esp\u00e9rons !)",
   "fieldname": "exp_end_date",
   "fieldtype": "Date",
   "has_next_condition": 0,
   "hide_buttons": 0,
   "is_table_field": 0,
   "label": "Expected End Date",
   "modal_trigger": 0,
   "next_on_click": 0,
   "offset_x": 0,
   "offset_y": 0,
   "popover_element": 0,
   "position": "Bottom",
   "title": "Date de fin pr\u00e9vue",
   "ui_tour": 0
  },
  {
   "description": "Indiquer une dur\u00e9e pr\u00e9vue pour votre t\u00e2che vous permettra de vous assurer qu'il n'y a pas de d\u00e9passement dans le suivi du temps.",
   "fieldname": "expected_time",
   "fieldtype": "Float",
   "has_next_condition": 0,
   "hide_buttons": 0,
   "is_table_field": 0,
   "label": "Expected Time (in hours)",
   "modal_trigger": 0,
   "next_on_click": 0,
   "offset_x": 0,
   "offset_y": 0,
   "popover_element": 0,
   "position": "Bottom",
   "title": "Dur\u00e9e pr\u00e9vue",
   "ui_tour": 0
  },
  {
   "description": "Ce champ vous permet d'indiquer la progression de votre t\u00e2che (\u00e0 priori 0 \u00e0 la cr\u00e9ation). <br>\nVous pouvez ensuite mettre \u00e0 jour cette valeur pour traquer vos progr\u00e8s.<br>\n<br>\nCette valeur sert de base au calcul de l'avancement du projet si vous choisissez de le faire sur la base de la progression des t\u00e2ches (vous pouvez aussi opter pour un simple ratio t\u00e2ches ouvertes/total auquel cas vous pouvez ignorer ce champ). ",
   "fieldname": "progress",
   "fieldtype": "Percent",
   "has_next_condition": 0,
   "hide_buttons": 0,
   "is_table_field": 0,
   "label": "% Progress",
   "modal_trigger": 0,
   "next_on_click": 0,
   "offset_x": 0,
   "offset_y": 0,
   "popover_element": 0,
   "position": "Bottom",
   "title": "Progression",
   "ui_tour": 0
  },
  {
   "description": "Une description d\u00e9taill\u00e9e de la t\u00e2che est toujours bienvenue.",
   "fieldname": "sb_details",
   "fieldtype": "Section Break",
   "has_next_condition": 0,
   "hide_buttons": 0,
   "is_table_field": 0,
   "label": "Details",
   "modal_trigger": 0,
   "next_on_click": 0,
   "offset_x": 0,
   "offset_y": 0,
   "popover_element": 0,
   "position": "Top",
   "title": "D\u00e9tails",
   "ui_tour": 0
  },
  {
   "description": "Ce tableau vous permet de sp\u00e9cifier les t\u00e2ches qui d\u00e9pendent de la t\u00e2che en cours.",
   "fieldname": "depends_on",
   "fieldtype": "Table",
   "has_next_condition": 0,
   "hide_buttons": 0,
   "is_table_field": 0,
   "label": "Dependent Tasks",
   "modal_trigger": 0,
   "next_on_click": 0,
   "offset_x": 0,
   "offset_y": 0,
   "popover_element": 0,
   "position": "Bottom",
   "title": "D\u00e9pendance",
   "ui_tour": 0
  }
 ],
 "title": "Task",
 "track_steps": 1,
 "ui_tour": 0,
 "view_name": "Form",
 "workspace_name": ""
}