{
 "actions": [],
 "creation": "2013-02-22 01:28:01",
 "doctype": "DocType",
 "editable_grid": 1,
 "engine": "InnoDB",
 "field_order": [
  "tax_determination_section",
  "company",
  "tax_category",
  "item_tax_template",
  "column_break_znrh",
  "valid_from",
  "minimum_net_rate",
  "maximum_net_rate",
  "income_expense_section",
  "income_account",
  "column_break_eamj",
  "expense_account"
 ],
 "fields": [
  {
   "fieldname": "item_tax_template",
   "fieldtype": "Link",
   "in_list_view": 1,
   "label": "Item Tax Template",
   "oldfieldname": "tax_type",
   "oldfieldtype": "Link",
   "options": "Item Tax Template",
   "reqd": 1
  },
  {
   "fieldname": "tax_category",
   "fieldtype": "Link",
   "in_list_view": 1,
   "label": "Tax Category",
   "oldfieldname": "tax_rate",
   "oldfieldtype": "Currency",
   "options": "Tax Category"
  },
  {
   "fieldname": "valid_from",
   "fieldtype": "Date",
   "in_list_view": 1,
   "label": "Valid From"
  },
  {
   "fieldname": "maximum_net_rate",
   "fieldtype": "Float",
   "in_list_view": 1,
   "label": "Maximum Net Rate"
  },
  {
   "fieldname": "minimum_net_rate",
   "fieldtype": "Float",
   "in_list_view": 1,
   "label": "Minimum Net Rate"
  },
  {
   "fetch_from": "item_tax_template.company",
   "fieldname": "company",
   "fieldtype": "Link",
   "label": "Company",
   "options": "Company",
   "read_only": 1
  },
  {
   "fieldname": "column_break_znrh",
   "fieldtype": "Column Break"
  },
  {
   "fieldname": "income_account",
   "fieldtype": "Link",
   "label": "Income Account",
   "options": "Account"
  },
  {
   "fieldname": "column_break_eamj",
   "fieldtype": "Column Break"
  },
  {
   "fieldname": "expense_account",
   "fieldtype": "Link",
   "label": "Expense Account",
   "options": "Account"
  },
  {
   "fieldname": "tax_determination_section",
   "fieldtype": "Section Break",
   "label": "Tax Determination"
  },
  {
   "depends_on": "eval:doc.tax_category",
   "description": "You can use the following fields to override the configuration set in Accounts > Default Values",
   "fieldname": "income_expense_section",
   "fieldtype": "Section Break",
   "label": "Specific Income and Expense Accounts"
  }
 ],
 "idx": 1,
 "istable": 1,
 "links": [],
 "modified": "2024-03-27 13:09:55.445934",
 "modified_by": "Administrator",
 "module": "Stock",
 "name": "Item Tax",
 "owner": "Administrator",
 "permissions": [],
 "sort_field": "creation",
 "sort_order": "DESC",
 "states": []
}
