{
 "actions": [],
 "allow_import": 1,
 "allow_rename": 1,
 "creation": "2013-01-10 16:34:09",
 "description": "Standard tax template that can be applied to all Sales Transactions. This template can contain a list of tax heads and also other expense/income heads like \"Shipping\", \"Insurance\", \"Handling\" etc.",
 "doctype": "DocType",
 "document_type": "Setup",
 "engine": "InnoDB",
 "field_order": [
  "title",
  "is_default",
  "disabled",
  "column_break_3",
  "company",
  "tax_category",
  "section_break_5",
  "taxes"
 ],
 "fields": [
  {
   "fieldname": "title",
   "fieldtype": "Data",
   "label": "Title",
   "no_copy": 1,
   "oldfieldname": "title",
   "oldfieldtype": "Data",
   "reqd": 1
  },
  {
   "default": "0",
   "fieldname": "is_default",
   "fieldtype": "Check",
   "in_list_view": 1,
   "label": "Default"
  },
  {
   "default": "0",
   "fieldname": "disabled",
   "fieldtype": "Check",
   "label": "Disabled"
  },
  {
   "fieldname": "column_break_3",
   "fieldtype": "Column Break"
  },
  {
   "fieldname": "company",
   "fieldtype": "Link",
   "in_list_view": 1,
   "in_standard_filter": 1,
   "label": "Company",
   "oldfieldname": "company",
   "oldfieldtype": "Link",
   "options": "Company",
   "remember_last_selected_value": 1,
   "reqd": 1
  },
  {
   "fieldname": "section_break_5",
   "fieldtype": "Section Break"
  },
  {
   "description": "* Will be calculated in the transaction.",
   "fieldname": "taxes",
   "fieldtype": "Table",
   "label": "Sales Taxes and Charges",
   "oldfieldname": "other_charges",
   "oldfieldtype": "Table",
   "options": "Sales Taxes and Charges"
  },
  {
   "fieldname": "tax_category",
   "fieldtype": "Link",
   "label": "Tax Category",
   "options": "Tax Category"
  }
 ],
 "icon": "uil uil-money-bill",
 "idx": 1,
 "index_web_pages_for_search": 1,
 "links": [],
 "modified": "2024-03-27 13:10:38.343481",
 "modified_by": "Administrator",
 "module": "Accounts",
 "name": "Sales Taxes and Charges Template",
 "owner": "Administrator",
 "permissions": [
  {
   "email": 1,
   "print": 1,
   "read": 1,
   "report": 1,
   "role": "Sales User",
   "select": 1
  },
  {
   "create": 1,
   "delete": 1,
   "email": 1,
   "print": 1,
   "read": 1,
   "report": 1,
   "role": "Accounts Manager",
   "select": 1,
   "share": 1,
   "write": 1
  },
  {
   "create": 1,
   "delete": 1,
   "email": 1,
   "print": 1,
   "read": 1,
   "report": 1,
   "role": "Sales Master Manager",
   "select": 1,
   "share": 1,
   "write": 1
  },
  {
   "read": 1,
   "role": "Accounts User",
   "select": 1
  }
 ],
 "show_title_field_in_link": 1,
 "sort_field": "creation",
 "sort_order": "ASC",
 "states": [],
 "title_field": "title",
 "track_changes": 1
}
