{
 "aggregate_function_based_on": "actual_qty",
 "color": "#40BCBB",
 "creation": "2023-08-29 14:44:44.343424",
 "docstatus": 0,
 "doctype": "Number Card",
 "document_type": "Bin",
 "filters_json": "[]",
 "function": "Sum",
 "idx": 0,
 "is_public": 1,
 "is_standard": 1,
 "label": "Total Quantity in Stock",
 "modified": "2023-08-29 14:44:44.343424",
 "modified_by": "Administrator",
 "module": "Stock",
 "name": "Total Quantity in Stock",
 "owner": "Administrator",
 "report_function": "Sum",
 "show_percentage_stats": 1,
 "stats_time_interval": "Monthly",
 "type": "Document Type"
}
