{
 "color": "#39E4A5",
 "creation": "2020-07-20 21:01:02.499689",
 "docstatus": 0,
 "doctype": "Number Card",
 "document_type": "Supplier",
 "filters_json": "[[\"Supplier\",\"disabled\",\"=\",\"0\"]]",
 "function": "Count",
 "idx": 0,
 "is_public": 1,
 "is_standard": 1,
 "label": "Active Suppliers",
 "modified": "2023-04-19 15:54:55.029181",
 "modified_by": "Administrator",
 "module": "Buying",
 "name": "Active Suppliers",
 "owner": "Administrator",
 "show_percentage_stats": 1,
 "stats_time_interval": "Monthly",
 "type": "Document Type"
}
