{
 "actions": [],
 "allow_rename": 1,
 "creation": "2023-06-08 18:04:30.601238",
 "doctype": "DocType",
 "editable_grid": 1,
 "engine": "InnoDB",
 "field_order": [
  "accounting_journal_in_fec",
  "accounting_journal_in_dokos"
 ],
 "fields": [
  {
   "fieldname": "accounting_journal_in_fec",
   "fieldtype": "Data",
   "in_list_view": 1,
   "label": "Accounting Journal in FEC",
   "reqd": 1
  },
  {
   "fieldname": "accounting_journal_in_dokos",
   "fieldtype": "Link",
   "in_list_view": 1,
   "label": "Accounting Journal in Dokos",
   "options": "Accounting Journal",
   "reqd": 1
  }
 ],
 "index_web_pages_for_search": 1,
 "istable": 1,
 "links": [],
 "modified": "2023-06-08 18:04:30.601238",
 "modified_by": "Administrator",
 "module": "Regional",
 "name": "FEC Accounting Journal Mapping",
 "owner": "Administrator",
 "permissions": [],
 "sort_field": "modified",
 "sort_order": "DESC",
 "states": []
}
