{
 "chart_name": "Top Suppliers based on Purchase Invoices",
 "chart_type": "Report",
 "creation": "2023-04-19 16:17:54.383069",
 "custom_options": "{\"maxSlices\": 5}",
 "docstatus": 0,
 "doctype": "Dashboard Chart",
 "dynamic_filters_json": "{\"company\":\"frappe.defaults.get_user_default(\\\"Company\\\")\",\"fiscal_year\":\"erpnext.utils.get_fiscal_year()\"}",
 "filters_json": "{\"period\":\"Yearly\",\"period_based_on\":\"posting_date\",\"based_on\":\"Supplier\"}",
 "group_by_type": "Count",
 "idx": 0,
 "is_public": 1,
 "is_standard": 1,
 "modified": "2023-09-19 08:08:59.555935",
 "modified_by": "Administrator",
 "module": "Buying",
 "name": "Top Suppliers based on Purchase Invoices",
 "number_of_groups": 0,
 "owner": "Administrator",
 "report_name": "Purchase Invoice Trends",
 "roles": [],
 "time_interval": "Yearly",
 "timeseries": 0,
 "timespan": "Last Year",
 "type": "Percentage",
 "use_report_chart": 1,
 "x_field": "",
 "y_axis": []
}
