{
 "creation": "2023-08-30 15:52:54.658733",
 "dashboard_name": "",
 "docstatus": 0,
 "doctype": "Form Tour",
 "first_document": 0,
 "idx": 3,
 "include_name_field": 0,
 "is_standard": 1,
 "language": "fr",
 "list_name": "",
 "modified": "2023-08-31 11:21:58.454384",
 "modified_by": "Administrator",
 "module": "Projects",
 "name": "Feuille de temps",
 "new_document_form": 0,
 "owner": "Administrator",
 "page_name": "",
 "page_route": "[\"Form\",\"Timesheet\"]",
 "reference_doctype": "Timesheet",
 "report_name": "",
 "save_on_complete": 1,
 "steps": [
  {
   "description": "Nomenclature de votre feuille de temps. <br>\nPar d\u00e9faut, l'identifiant de vos feuilles de temps sera :\n<ul>\n    <li>TS-2023-00001</li>\n    <li>TS-2023-00002</li>\n    <li>TS-2023-00003...</li>\n</ul>\nVous pouvez le modifier dans les <a href='../document-naming-settings'><b>Param\u00e8tres de nommage des documents</b></a>.",
   "element_selector": "div > div:nth-child(1) > form > div:nth-child(3) > div > div.control-input-wrapper",
   "fieldname": "naming_series",
   "fieldtype": "Select",
   "has_next_condition": 0,
   "hide_buttons": 0,
   "is_table_field": 0,
   "label": "Series",
   "modal_trigger": 0,
   "next_on_click": 0,
   "offset_x": 0,
   "offset_y": 0,
   "popover_element": 0,
   "position": "Bottom",
   "title": "S\u00e9rie",
   "ui_tour": 1
  },
  {
   "description": "Si vous avez plusieurs soci\u00e9t\u00e9 configur\u00e9es sur dokos, choisissez \u00e0 laquelle se rattache cette feuille de temps.<br> C'est cette soci\u00e9t\u00e9 qui \u00e9mettra une \u00e9ventuelle facture.",
   "element_selector": "div:nth-child(2) > div > div:nth-child(1) > form > div:nth-child(4) > div > div.control-input-wrapper > div.control-input > div > div",
   "fieldname": "company",
   "fieldtype": "Link",
   "has_next_condition": 0,
   "hide_buttons": 0,
   "is_table_field": 0,
   "label": "Company",
   "modal_trigger": 0,
   "next_on_click": 0,
   "offset_x": 0,
   "offset_y": 0,
   "popover_element": 0,
   "position": "Top",
   "title": "Soci\u00e9t\u00e9",
   "ui_tour": 1
  },
  {
   "description": "Toute feuille de temps doit \u00eatre associ\u00e9e \u00e0 un projet. Assurez-vous d'avoir cr\u00e9e un <a href='../project'><b>Projet</b></a> au pr\u00e9alable.",
   "element_selector": "div > div:nth-child(2) > form > div:nth-child(3) > div > div.control-input-wrapper",
   "fieldname": "parent_project",
   "fieldtype": "Link",
   "has_next_condition": 0,
   "hide_buttons": 0,
   "is_table_field": 0,
   "label": "Project",
   "modal_trigger": 0,
   "next_on_click": 0,
   "offset_x": 0,
   "offset_y": 0,
   "popover_element": 0,
   "position": "Top",
   "title": "Projet",
   "ui_tour": 1
  },
  {
   "description": "S\u00e9lectionner un client s'il s'agit d'un projet externe. Si vous d\u00e9cidez de cr\u00e9er une facture \u00e0 partir de cette feuille de temps, c'est \u00e0 lui qu'elle sera adress\u00e9e.\n<br>\n<i>Remarque : vous devez avoir cr\u00e9e un <a href='../customer'><b>Client</b></a>.</i>",
   "element_selector": "div > div:nth-child(1) > form > div:nth-child(5) > div > div.control-input-wrapper",
   "fieldname": "customer",
   "fieldtype": "Link",
   "has_next_condition": 0,
   "hide_buttons": 0,
   "is_table_field": 0,
   "label": "Customer",
   "modal_trigger": 0,
   "next_on_click": 0,
   "offset_x": 0,
   "offset_y": 0,
   "popover_element": 0,
   "position": "Top",
   "title": "Client",
   "ui_tour": 1
  },
  {
   "description": "L'employ\u00e9 qui remplit la fiche.\n<br>\n<i>Remarque : Vous devez d'abord avoir cr\u00e9e un <a href=\"../employee\"><b>Employ\u00e9</b></a></i>",
   "element_selector": "div:nth-child(3) > div.section-body > div:nth-child(1) > form > div:nth-child(1) > div > div.control-input-wrapper > div.control-input",
   "fieldname": "employee",
   "fieldtype": "Link",
   "has_next_condition": 0,
   "hide_buttons": 0,
   "is_table_field": 0,
   "label": "Employee",
   "modal_trigger": 0,
   "next_on_click": 0,
   "offset_x": 0,
   "offset_y": 0,
   "popover_element": 0,
   "position": "Top",
   "title": "Employ\u00e9",
   "ui_tour": 1
  },
  {
   "description": "Vous pouvez lancer un chronom\u00e8tre ici. <br>\nLe chronom\u00e8tre continu m\u00eame quand vous fermer cette page. N'oubliez pas de l'arr\u00eater !",
   "element_selector": "#page-Timesheet > div.page-head.flex > div > div > div.flex.col.page-actions.justify-content-end > div.custom-actions.hidden-xs.hidden-md",
   "fieldtype": "0",
   "has_next_condition": 0,
   "hide_buttons": 0,
   "is_table_field": 0,
   "modal_trigger": 0,
   "next_on_click": 0,
   "offset_x": 0,
   "offset_y": 0,
   "popover_element": 0,
   "position": "Bottom",
   "title": "Chronom\u00e8tre",
   "ui_tour": 1
  },
  {
   "description": "A chaque fois que vous d\u00e9marrez et arr\u00eater le chronom\u00e8tre, le temps pass\u00e9 s'ajoute dans ce tableau. <br>\nSi vous \u00eates \u00e9tourdi et que vous avez oubli\u00e9 d'arr\u00eater le chronom\u00e8tre, pas d'inqui\u00e9tudes! Vous pouvez \u00e9diter manuellement le temps pass\u00e9 directement depuis ce tableau. <br>\n<br>\nN'oubliez pas de valider vos feuille de temps r\u00e9guli\u00e8rement !",
   "element_selector": "div.layout-main-section > div:nth-child(2) > div > div > div.form-page > div:nth-child(4) > div > div > form > div > div",
   "fieldtype": "0",
   "has_next_condition": 0,
   "hide_buttons": 0,
   "is_table_field": 0,
   "modal_trigger": 0,
   "next_on_click": 0,
   "offset_x": 0,
   "offset_y": 0,
   "popover_element": 0,
   "position": "Bottom",
   "title": "Table du temps pass\u00e9 sur les t\u00e2ches",
   "ui_tour": 1
  },
  {
   "description": "Vous pouvez \u00e9galement ajouter une ligne manuellement sans passer par le chronom\u00e8tre.",
   "element_selector": "form > div > div > div.small.form-clickable-section.grid-footer > div > div.grid-buttons > button.btn.btn-xs.btn-secondary.grid-add-row",
   "fieldtype": "0",
   "has_next_condition": 0,
   "hide_buttons": 0,
   "is_table_field": 0,
   "modal_trigger": 0,
   "next_on_click": 0,
   "offset_x": 0,
   "offset_y": 0,
   "popover_element": 0,
   "position": "Bottom",
   "title": "Ajouter une entr\u00e9e",
   "ui_tour": 1
  },
  {
   "description": "Comme toutes les tables enfant sur dokos, vous avez acc\u00e8s \u00e0 plus de champsben cliquant ici",
   "element_selector": "form > div > div > div.form-grid-container > div > div.grid-body > div.rows > div > div > div:nth-child(9)",
   "fieldtype": "0",
   "has_next_condition": 0,
   "hide_buttons": 0,
   "is_table_field": 0,
   "modal_trigger": 0,
   "next_on_click": 0,
   "offset_x": 0,
   "offset_y": 0,
   "popover_element": 0,
   "position": "Bottom",
   "title": "Voir plus de champs",
   "ui_tour": 1
  }
 ],
 "title": "Feuille de temps",
 "track_steps": 1,
 "ui_tour": 1,
 "view_name": "Form",
 "workspace_name": ""
}