{
 "button_gradients": 0,
 "button_rounded_corners": 1,
 "button_shadows": 0,
 "creation": "2020-09-16 17:58:16.283764",
 "custom": 0,
 "custom_overrides": "",
 "custom_scss": "",
 "docstatus": 0,
 "doctype": "Website Theme",
 "font_properties": "",
 "google_font": "",
 "idx": 0,
 "ignored_apps": [],
 "modified": "2023-11-03 13:17:23.537454",
 "modified_by": "Administrator",
 "module": "Portal",
 "name": "Dokos",
 "owner": "Administrator",
 "theme": "Dokos",
 "theme_scss": "$enable-shadows: false;\n$enable-gradients: false;\n$enable-rounded: true;\n\n// Bootstrap Variable Overrides\n\n\n// Import themes from installed apps\n@import \"frappe/public/scss/website.bundle\";\n@import \"erpnext/public/scss/website\";\n\n\n\n// Custom Theme\n\n\n:root {\n\t--web-sidebar-bg: #{$sidebar-bg};\n\t--web-sidebar-bg-alpha: 1;\n\t}",
 "theme_url": "/files/website_theme/dokos_style.css"
}
