{
 "actions": [],
 "allow_rename": 1,
 "autoname": "field:project_type",
 "creation": "2017-07-18 13:32:46.031115",
 "doctype": "DocType",
 "editable_grid": 1,
 "engine": "InnoDB",
 "field_order": [
  "project_type",
  "is_default",
  "description"
 ],
 "fields": [
  {
   "fieldname": "project_type",
   "fieldtype": "Data",
   "in_list_view": 1,
   "label": "Project Type",
   "reqd": 1,
   "unique": 1
  },
  {
   "fieldname": "description",
   "fieldtype": "Text",
   "label": "Description"
  },
  {
   "default": "0",
   "fieldname": "is_default",
   "fieldtype": "Check",
   "label": "Is Default"
  }
 ],
 "links": [],
 "modified": "2024-08-16 19:24:29.480229",
 "modified_by": "Administrator",
 "module": "Projects",
 "name": "Project Type",
 "owner": "Administrator",
 "permissions": [
  {
   "create": 1,
   "delete": 1,
   "email": 1,
   "export": 1,
   "print": 1,
   "read": 1,
   "report": 1,
   "role": "System Manager",
   "share": 1,
   "write": 1
  },
  {
   "create": 1,
   "delete": 1,
   "email": 1,
   "export": 1,
   "print": 1,
   "read": 1,
   "report": 1,
   "role": "Projects Manager",
   "share": 1,
   "write": 1
  },
  {
   "email": 1,
   "export": 1,
   "print": 1,
   "read": 1,
   "report": 1,
   "role": "Projects User",
   "share": 1
  }
 ],
 "quick_entry": 1,
 "sort_field": "creation",
 "sort_order": "DESC",
 "states": [],
 "track_changes": 1,
 "translated_doctype": 1
}
