{
 "actions": [],
 "creation": "2021-08-19 00:14:14.857421",
 "doctype": "DocType",
 "editable_grid": 1,
 "engine": "InnoDB",
 "field_order": [
  "lead",
  "lead_name",
  "status",
  "email",
  "mobile_no"
 ],
 "fields": [
  {
   "fieldname": "lead",
   "fieldtype": "Link",
   "in_list_view": 1,
   "label": "Lead",
   "options": "Lead",
   "reqd": 1
  },
  {
   "fieldname": "lead_name",
   "fieldtype": "Data",
   "in_list_view": 1,
   "label": "Lead Name",
   "read_only": 1
  },
  {
   "fieldname": "status",
   "fieldtype": "Select",
   "in_list_view": 1,
   "label": "Status",
   "options": "Lead\nOpen\nReplied\nOpportunity\nQuotation\nLost Quotation\nInterested\nConverted\nDo Not Contact",
   "read_only": 1
  },
  {
   "fieldname": "email",
   "fieldtype": "Data",
   "in_list_view": 1,
   "label": "Email",
   "options": "Email",
   "read_only": 1
  },
  {
   "fieldname": "mobile_no",
   "fieldtype": "Data",
   "in_list_view": 1,
   "label": "Mobile No",
   "options": "Phone",
   "read_only": 1
  }
 ],
 "index_web_pages_for_search": 1,
 "istable": 1,
 "links": [],
 "modified": "2024-03-27 13:10:22.993745",
 "modified_by": "Administrator",
 "module": "CRM",
 "name": "Prospect Lead",
 "owner": "Administrator",
 "permissions": [],
 "sort_field": "creation",
 "sort_order": "DESC",
 "track_changes": 1
}
