{
 "actions": [],
 "creation": "2014-12-24 14:46:40.678236",
 "doctype": "DocType",
 "editable_grid": 1,
 "engine": "InnoDB",
 "field_order": [
  "start_time",
  "hours",
  "column_break_2",
  "end_time",
  "enabled"
 ],
 "fields": [
  {
   "fieldname": "start_time",
   "fieldtype": "Time",
   "in_list_view": 1,
   "label": "Start Time",
   "reqd": 1
  },
  {
   "fieldname": "column_break_2",
   "fieldtype": "Column Break"
  },
  {
   "fieldname": "end_time",
   "fieldtype": "Time",
   "in_list_view": 1,
   "label": "End Time",
   "reqd": 1
  },
  {
   "default": "1",
   "fieldname": "enabled",
   "fieldtype": "Check",
   "in_list_view": 1,
   "label": "Enabled"
  },
  {
   "fieldname": "hours",
   "fieldtype": "Float",
   "label": "Hours",
   "read_only": 1
  }
 ],
 "istable": 1,
 "links": [],
 "modified": "2024-03-27 13:11:01.081988",
 "modified_by": "Administrator",
 "module": "Manufacturing",
 "name": "Workstation Working Hour",
 "owner": "Administrator",
 "permissions": [],
 "sort_field": "creation",
 "sort_order": "DESC",
 "states": []
}
