{
 "add_total_row": 0,
 "columns": [],
 "creation": "2013-02-25 17:03:34",
 "disable_prepared_report": 0,
 "disabled": 0,
 "docstatus": 0,
 "doctype": "Report",
 "filters": [],
 "idx": 3,
 "is_standard": "Yes",
 "modified": "2025-01-27 18:40:24.493829",
 "modified_by": "Administrator",
 "module": "Accounts",
 "name": "Gross Profit",
 "owner": "Administrator",
 "prepared_report": 0,
 "ref_doctype": "Sales Invoice",
 "report_name": "Gross Profit",
 "report_type": "Script Report",
 "roles": [
  {
   "role": "Accounts Manager"
  },
  {
   "role": "Accounts User"
  }
 ]
}
